[
{
"acceleration": 3.0,
"curvature": 0.0,
"pose": {
"rotation": {
"radians": -3.1118984139828836
},
"translation": {
"x": 15.704022397903032,
"y": 7.28592634576869
}
},
"time": 0.0,
"velocity": 0.0
},
{
"acceleration": 3.000000000000001,
"curvature": 2.0286438830482716,
"pose": {
"rotation": {
"radians": -3.024949101370115
},
"translation": {
"x": 15.633224561595398,
"y": 7.281596780095195
}
},
"time": 0.21745512599993563,
"velocity": 0.6523653779998069
},
{
"acceleration": 3.0000000000000013,
"curvature": 2.1487678582822745,
"pose": {
"rotation": {
"radians": -2.9425977012713065
},
"translation": {
"x": 15.595071049906682,
"y": 7.275539287802744
}
},
"time": 0.270260959851342,
"velocity": 0.8107828795540261
},
{
"acceleration": 3.000000000000002,
"curvature": 1.9007877702497793,
"pose": {
"rotation": {
"radians": -2.856203394440931
},
"translation": {
"x": 15.554026995814032,
"y": 7.26536081475767
}
},
"time": 0.3181705821535587,
"velocity": 0.9545117464606762
},
{
"acceleration": 3.0000000000000004,
"curvature": 1.5228199286789703,
"pose": {
"rotation": {
"radians": -2.7758427793347664
},
"translation": {
"x": 15.509575627047123,
"y": 7.250281078139458
}
},
"time": 0.3640406046369018,
"velocity": 1.0921218139107056
},
{
"acceleration": 3.0,
"curvature": 1.1591730089717611,
"pose": {
"rotation": {
"radians": -2.7060291465341844
},
"translation": {
"x": 15.46139864198725,
"y": 7.22978454807898
}
},
"time": 0.40918141144797504,
"velocity": 1.2275442343439253
},
{
"acceleration": 3.0000000000000053,
"curvature": 0.863688740200726,
"pose": {
"rotation": {
"radians": -2.6476157603675707
},
"translation": {
"x": 15.40935904336689,
"y": 7.203598343107249
}
},
"time": 0.4541664821295095,
"velocity": 1.3624994463885287
},
{
"acceleration": 3.0,
"curvature": 0.6410885061660199,
"pose": {
"rotation": {
"radians": -2.599668698951427
},
"translation": {
"x": 15.353483971969267,
"y": 7.171670125604164
}
},
"time": 0.4991691561839276,
"velocity": 1.4975074685517833
},
{
"acceleration": 2.9999999999999987,
"curvature": 0.4785661747397664,
"pose": {
"rotation": {
"radians": -2.5606541076752687
},
"translation": {
"x": 15.293947540327915,
"y": 7.134145997247277
}
},
"time": 0.5441383490262425,
"velocity": 1.632415047078728
},
{
"acceleration": 2.999999999999996,
"curvature": 0.36076788638961843,
"pose": {
"rotation": {
"radians": -2.5290193577416114
},
"translation": {
"x": 15.231053666426241,
"y": 7.0913483944605336
}
},
"time": 0.588899510607456,
"velocity": 1.7666985318223687
},
{
"acceleration": 2.9999999999999987,
"curvature": 0.2747956785355138,
"pose": {
"rotation": {
"radians": -2.5034165995109032
},
"translation": {
"x": 15.165218907397096,
"y": 7.0437539838630325
}
},
"time": 0.6332145022714646,
"velocity": 1.8996435068143942
},
{
"acceleration": 2.9999999999999964,
"curvature": 0.21101290888342578,
"pose": {
"rotation": {
"radians": -2.482755951406845
},
"translation": {
"x": 15.09695529322232,
"y": 6.991971557717781
}
},
"time": 0.6768173228432539,
"velocity": 2.030451968529762
},
{
"acceleration": 2.999999999999994,
"curvature": 0.16252157535563824,
"pose": {
"rotation": {
"radians": -2.4661910134742473
},
"translation": {
"x": 15.026853160432331,
"y": 6.936719929380441
}
},
"time": 0.7194353683500383,
"velocity": 2.158306105050115
},
{
"acceleration": 2.9508261442538317,
"curvature": 0.1244098179825543,
"pose": {
"rotation": {
"radians": -2.4530846128427726
},
"translation": {
"x": 14.955563985805671,
"y": 6.87880582874809
}
},
"time": 0.7608020352717629,
"velocity": 2.2824061058152885
},
{
"acceleration": -3.000000000000002,
"curvature": 0.09309603737710163,
"pose": {
"rotation": {
"radians": -2.442974628942958
},
"translation": {
"x": 14.883783220068572,
"y": 6.819101797707971
}
},
"time": 0.8006804802548102,
"velocity": 2.4000804638634525
},
{
"acceleration": -2.999999999999998,
"curvature": 0.06581648554668665,
"pose": {
"rotation": {
"radians": -2.4355471489718608
},
"translation": {
"x": 14.812233121594527,
"y": 6.758524085586242
}
},
"time": 0.8407448896433717,
"velocity": 2.279887235697768
},
{
"acceleration": -2.999999999999998,
"curvature": 0.04021685733066244,
"pose": {
"rotation": {
"radians": -2.4306192524275385
},
"translation": {
"x": 14.741645590103847,
"y": 6.698010544596737
}
},
"time": 0.8826829003040951,
"velocity": 2.1540732037155976
},
{
"acceleration": -3.0,
"curvature": 0.013983754690160654,
"pose": {
"rotation": {
"radians": -2.4281323304121374
},
"translation": {
"x": 14.672745000363228,
"y": 6.638498525289715
}
},
"time": 0.9262718481940272,
"velocity": 2.0233063600458014
},
{
"acceleration": -2.9999999999999973,
"curvature": -0.015564521076641868,
"pose": {
"rotation": {
"radians": -2.4281571798895483
},
"translation": {
"x": 14.606231035885314,
"y": 6.580902772000614
}
},
"time": 0.9712579821272997,
"velocity": 1.888347958245984
},
{
"acceleration": -2.9999999999999973,
"curvature": -0.052043457096269986,
"pose": {
"rotation": {
"radians": -2.430913538025398
},
"translation": {
"x": 14.54276152262826,
"y": 6.526093318298804
}
},
"time": 1.0173549594532574,
"velocity": 1.7500570262681112
},
{
"acceleration": -3.0,
"curvature": -0.10092117241016559,
"pose": {
"rotation": {
"radians": -2.436809266991908
},
"translation": {
"x": 14.482935262695294,
"y": 6.474873382436338
}
},
"time": 1.0642417423971609,
"velocity": 1.609396677436401
},
{
"acceleration": -2.9999999999999982,
"curvature": -0.1711669193476773,
"pose": {
"rotation": {
"radians": -2.4465085700265714
},
"translation": {
"x": 14.42727486803429,
"y": 6.427957262796714
}
},
"time": 1.1115602019984743,
"velocity": 1.4674412986324605
},
{
"acceleration": -3.0,
"curvature": -0.45106117622946745,
"pose": {
"rotation": {
"radians": -2.482007686842186
},
"translation": {
"x": 14.330058173740222,
"y": 6.349316439069681
}
},
"time": 1.205860938787536,
"velocity": 1.1845390882652755
},
{
"acceleration": -3.0000000000000013,
"curvature": -1.2576541755723565,
"pose": {
"rotation": {
"radians": -2.5542436359705936
},
"translation": {
"x": 14.253116212805217,
"y": 6.293266863867064
}
},
"time": 1.2966646155884658,
"velocity": 0.9121280578624865
},
{
"acceleration": -2.9999999999999982,
"curvature": -2.1888714754629226,
"pose": {
"rotation": {
"radians": -2.614785830162529
},
"translation": {
"x": 14.222256027253897,
"y": 6.273924787107157
}
},
"time": 1.3396297423720107,
"velocity": 0.7832326775118514
},
{
"acceleration": -3.000000000000002,
"curvature": -3.844803234763737,
"pose": {
"rotation": {
"radians": -2.70091665425834
},
"translation": {
"x": 14.196136072574749,
"y": 6.260067144761461
}
},
"time": 1.3805953521401992,
"velocity": 0.6603358482072859
},
{
"acceleration": -2.9999999999999973,
"curvature": -5.032106119444929,
"pose": {
"rotation": {
"radians": -2.755941457329776
},
"translation": {
"x": 14.184708266431528,
"y": 6.255040399769822
}
},
"time": 1.4003918864802196,
"velocity": 0.6009462451872245
},
{
"acceleration": -2.9999999999999987,
"curvature": -6.423529453849952,
"pose": {
"rotation": {
"radians": -2.819468508522104
},
"translation": {
"x": 14.174264973215903,
"y": 6.251166868698641
}
},
"time": 1.4198742684428376,
"velocity": 0.5424990992993706
},
{
"acceleration": -3.0,
"curvature": -7.838732409796596,
"pose": {
"rotation": {
"radians": -2.89051211257593
},
"translation": {
"x": 14.164711274284853,
"y": 6.248338970921175
}
},
"time": 1.439281493691508,
"velocity": 0.4842774235533599
},
{
"acceleration": -3.0,
"curvature": -8.890383045750086,
"pose": {
"rotation": {
"radians": -2.9660220755682154
},
"translation": {
"x": 14.15593783306664,
"y": 6.2464311345088195
}
},
"time": 1.4590293645533965,
"velocity": 0.4250338109676942
},
{
"acceleration": -3.0000000000000018,
"curvature": -9.002500170291846,
"pose": {
"rotation": {
"radians": -3.040212963062243
},
"translation": {
"x": 14.147820358613941,
"y": 6.24529910546388
}
},
"time": 1.4798411817746187,
"velocity": 0.36259835930402784
},
{
"acceleration": -3.0,
"curvature": -7.609518055096734,
"pose": {
"rotation": {
"radians": -3.104648373565218
},
"translation": {
"x": 14.140219069156947,
"y": 6.244779256952343
}
},
"time": 1.503089394895491,
"velocity": 0.29285371994141063
},
{
"acceleration": -3.0,
"curvature": -5.6604722274661875e-14,
"pose": {
"rotation": {
"radians": 3.1172072444170773
},
"translation": {
"x": 14.125925245357097,
"y": 6.244820585408531
}
},
"time": 1.600707301542628,
"velocity": 0.0
}
]